{
  "appName": {
    "message": "Git Harvest",
    "description": "The name of the application"
  },
  "appDescription": {
    "message": "Provides Harvest time tracking widgets in Gitlab and Github.",
    "description": "The description of the application"
  }
}
